…
#read in 2018
data.2018 <- read_csv("data/5081.survey.2.csv")
data.2018

## # A tibble: 21 x 6
##     year   rep r.experience discipline            research.data r.studio
##    <int> <int>        <int> <chr>                 <chr>         <chr>   
##  1  2018     1            1 physiology            quantitative  No      
##  2  2018     2            1 physiology            quantitative  Yes     
##  3  2018     3           NA ecology               quantitative  Yes     
##  4  2018     4            2 ecology               quantitative  No      
##  5  2018     5            2 ecology               quantitative  No      
##  6  2018     6            2 physiology            qualitative   No      
##  7  2018     7            1 genetics              quantitative  No      
##  8  2018     8            1 environmental science quantitative  No      
##  9  2018     9            2 genetics              qualitative   Yes     
## 10  2018    10            2 ecology               quantitative  Yes     
## # ... with 11 more rows

#combine years
data <- bind_rows(data.2016, data.2018)
data

## # A tibble: 39 x 6
##     year   rep r.experience discipline research.data r.studio
##    <int> <int>        <int> <chr>      <chr>         <chr>   
##  1  2016     1            2 physiology quantitative  No      
##  2  2016     2            1 genetics   quantitative  Yes     
##  3  2016     3            2 physiology quantitative  Yes     
##  4  2016     4            3 physiology quantitative  Yes     
##  5  2016     5            1 ecology    quantitative  No      
##  6  2016     6            1 physiology quantitative  No      
##  7  2016     7            3 ecology    quantitative  Yes     
##  8  2016     8            1 ecology    qualitative   No      
##  9  2016     9            1 ecology    quantitative  Yes     
## 10  2016    10            3 genetics   quantitative  No      
## # ... with 29 more rows
…
